multi_16x16/simulation/irun.log
irun(64): 15.20-s051: (c) Copyright 1995-2018 Cadence Design Systems, Inc.
TOOL:	irun(64)	15.20-s051: Started on Mar 08, 2023 at 11:02:48 IST
irun
	-access +rwc
	../rtl/cla.v
	../rtl/wallaceTree_8PP.v
	../rtl/pp_8_Gen.v
	../rtl/topMod_02.v
	../verification/topModTB_01.v
file: ../verification/topModTB_01.v
	module worklib.tb_booth16x16_top:v
		errors: 0, warnings: 0
		Caching library 'worklib' ....... Done
	Elaborating the design hierarchy:
	Top level design units:
		tb_booth16x16_top
	Building instance overlay tables: .................... Done
	Generating native compiled code:
		worklib.tb_booth16x16_top:v <0x1de9983e>
			streams:   5, words: 10728
	Building instance specific data structures.
	Loading native compiled code:     .................... Done
	Design hierarchy summary:
		                 Instances  Unique
		Modules:                 9       7
		Registers:              15      15
		Scalar wires:          615       -
		Vectored wires:         18       -
		Always blocks:           2       2
		Initial blocks:          1       1
		Cont. assignments:     625      30
		Pseudo assignments:      4       4
		Simulation timescale:  1ps
	Writing initial simulation snapshot: worklib.tb_booth16x16_top:v
Loading snapshot worklib.tb_booth16x16_top:v .................... Done
ncsim> source /tools/cadence/INCISIVE152/tools/inca/files/ncsimrc
ncsim> run
====== Starting Booth16x16 Multiplier Testbench ======
? OK (unsigned): A=0 B=0 | Result=0
? OK (unsigned): A=5 B=7 | Result=35
? OK (unsigned): A=255 B=10 | Result=2550
? MISMATCH (unsigned): A=65535 B=2 | DUT=4294967294 Ref=131070
? OK (signed): A=-12 B=3 | Result=-36
? OK (signed): A=-15 B=-2 | Result=30
? OK (signed): A=32767 B=2 | Result=65534
? OK (signed): A=-32768 B=1 | Result=-32768
? OK (unsigned): A=13604 B=24193 | Result=329121572
? OK (signed): A=-10743 B=22115 | Result=-237581445
? OK (unsigned): A=31501 B=39309 | Result=1238272809
? OK (signed): A=-31643 B=21010 | Result=-664819430
? MISMATCH (unsigned): A=58113 B=52493 | DUT=3905311757 Ref=3050525709
? OK (signed): A=-3722 B=-12995 | Result=48367390
? OK (unsigned): A=22509 B=63372 | Result=1426440348
? OK (signed): A=-5639 B=9414 | Result=-53085546
? MISMATCH (unsigned): A=33989 B=53930 | DUT=2593637586 Ref=1833026770
? OK (signed): A=-2075 B=29303 | Result=-60803725
? MISMATCH (unsigned): A=54802 B=56207 | DUT=3691641358 Ref=3080256014
? OK (signed): A=27122 B=-26930 | Result=-730395460
? OK (unsigned): A=31464 B=20165 | Result=634471560
? OK (signed): A=18780 B=10429 | Result=195856620
? OK (unsigned): A=22573 B=9829 | Result=221870017
? OK (signed): A=25187 B=-30966 | Result=-779940642
? OK (unsigned): A=8832 B=8480 | Result=74895360
? OK (signed): A=17834 B=-13155 | Result=-234606270
? OK (unsigned): A=16022 B=47123 | Result=755004706
? OK (signed): A=14349 B=-10669 | Result=-153089481
? MISMATCH (unsigned): A=56683 B=10965 | DUT=4197894151 Ref=621529095
? OK (signed): A=18946 B=16046 | Result=304007516
? MISMATCH (unsigned): A=59677 B=29391 | DUT=4122765427 Ref=1753966707
? OK (signed): A=18723 B=25866 | Result=484289118
? OK (unsigned): A=2762 B=19516 | Result=53903192
? OK (signed): A=-16910 B=24970 | Result=-422242700
? MISMATCH (unsigned): A=45889 B=13528 | DUT=4029182680 Ref=620786392
? OK (signed): A=-3208 B=4745 | Result=-15221960
? OK (unsigned): A=3563 B=26038 | Result=92773394
? OK (signed): A=-1594 B=5038 | Result=-8030572
? OK (unsigned): A=700 B=56618 | Result=39632600
? OK (signed): A=-26101 B=-16783 | Result=438053083
? OK (unsigned): A=16773 B=21839 | Result=366305547
? OK (signed): A=24635 B=13114 | Result=323063390
? OK (unsigned): A=12926 B=19221 | Result=248450646
? OK (signed): A=-25615 B=19417 | Result=-497366455
? OK (unsigned): A=1890 B=64332 | Result=121587480
? OK (signed): A=21919 B=-24177 | Result=-529935663
? MISMATCH (unsigned): A=43512 B=24759 | DUT=3749675080 Ref=1077313608
? OK (signed): A=22175 B=-27556 | Result=-611054300
====== Testbench Completed ======
Simulation complete via $finish(1) at time 240 NS + 0
../verification/topModTB_01.v:78         $finish;
ncsim> exit
TOOL:	irun(64)	15.20-s051: Exiting on Mar 08, 2023 at 11:02:50 IST  (total: 00:00:02)
